{
  "config": {
    "clientId": "amzn1.application-oa2-client.01972b2d6506482da2c829c50054e708",
    "productId" : "PrototypePi"
  },
  "metrics" : {
    "amazonId" : "<YOUR DEVICE'S AMAZON ID>",
    "stage" : "<YOUR STAGING ENVIRONMENT: Beta, Gamma, Prod>"
  }
}
